{
    "KPlugin": {
        "Category": "Window Management",
        "Description": "Editor for the tiling areas",
        "Description[ar]": "محرر لترتيب المساحات",
        "Description[be]": "Рэдактар абласцей кампанавання",
        "Description[bg]": "Редактиране на зоните на плочковидно разпределяне",
        "Description[ca@valencia]": "Editor per a les àrees de mosaic",
        "Description[ca]": "Editor per a les àrees de mosaic",
        "Description[cs]": "Editor pro oblasti dlaždicování",
        "Description[da]": "Editor for tiling-områder",
        "Description[de]": "Editor für die kachelartige Anordnung von Fenstern",
        "Description[eo]": "Redaktilo por la kahelaroj",
        "Description[es]": "Editor para las áreas de mosaico",
        "Description[eu]": "Eremu lauzatuen editorea",
        "Description[fi]": "Ruutupaneelien muokkain",
        "Description[fr]": "Éditeur pour les zones de recouvrement",
        "Description[gl]": "Editor das zonas de teselas.",
        "Description[he]": "עורך לאזורים המרוצפים",
        "Description[hu]": "Szerkesztő a mozaik területekhez",
        "Description[ia]": "Editor per le areas de tiling (tegular)",
        "Description[is]": "Ritill fyrir reitaröðuð svæði",
        "Description[it]": "Editor per le aree di affiancamento",
        "Description[ja]": "タイリング機能を設定するためのエディタ",
        "Description[ka]": "მოზაიკის რედაქტორი",
        "Description[ko]": "타일링 영역 편집기",
        "Description[lt]": "Išklojimo sričių redaktorius",
        "Description[lv]": "Flīzēšanas zonu redaktors",
        "Description[nl]": "Bewerker voor de gebieden waar tegels worden geplaatst",
        "Description[nn]": "Rediger flisområde",
        "Description[pl]": "Edytor dla obszarów kafelkowanych",
        "Description[pt]": "Editor das áreas com padrões",
        "Description[ru]": "Редактирование областей окон приложений в мозаичном режиме рабочего стола",
        "Description[sk]": "Editor pre oblasti dlaždíc",
        "Description[sl]": "Urejevalnik za področja s sličicami",
        "Description[sv]": "Editor för rutområdena",
        "Description[tr]": "Döşeme alanları için düzenleyicisi",
        "Description[uk]": "Редактор для мозаїчних областей",
        "Description[vi]": "Trình biên tập các vùng lát",
        "Description[x-test]": "xxEditor for the tiling areasxx",
        "Description[zh_CN]": "磁贴区域编辑器",
        "Description[zh_TW]": "平鋪方塊區域的編輯器",
        "EnabledByDefault": true,
        "License": "GPL",
        "Name": "Tiling Editor",
        "Name[ar]": "محرر الترتيب",
        "Name[be]": "Рэдактар кампанавання",
        "Name[bg]": "Редактор на разпределяне",
        "Name[ca@valencia]": "Editor de mosaic",
        "Name[ca]": "Editor de mosaic",
        "Name[cs]": "Editor dlaždic",
        "Name[da]": "Tiling editor",
        "Name[de]": "Tiling-Editor",
        "Name[eo]": "Kahela Redaktilo",
        "Name[es]": "Editor de mosaico",
        "Name[eu]": "Lauzadura editorea",
        "Name[fi]": "Paneelimuokkain",
        "Name[fr]": "Éditeur pour la gestion des recouvrements",
        "Name[gl]": "Editor de teselas",
        "Name[he]": "עורך ריצוף",
        "Name[hu]": "Mozaikszerkesztő",
        "Name[ia]": "Editor de tiling (tegular)",
        "Name[is]": "Reitaritill",
        "Name[it]": "Editor di affiancamento",
        "Name[ja]": "タイリング設定",
        "Name[ka]": "მოზაიკის რედაქტორი",
        "Name[ko]": "타일 편집기",
        "Name[lt]": "Išklojimo redaktorius",
        "Name[lv]": "Flīzēšanas redaktors",
        "Name[nl]": "Bewerker voor tegels plaatsen",
        "Name[nn]": "Rediger flisutforming",
        "Name[pl]": "Edytor kafelków",
        "Name[pt]": "Editor de Padrões",
        "Name[ru]": "Редактор областей мозаичного режима",
        "Name[sk]": "Editor dlaždíc",
        "Name[sl]": "Urejevalnik sličic",
        "Name[sv]": "Ruteditor",
        "Name[tr]": "Döşeme Düzenleyicisi",
        "Name[uk]": "Редактор мозаїк",
        "Name[vi]": "Trình biên tập lát",
        "Name[x-test]": "xxTiling Editorxx",
        "Name[zh_CN]": "磁贴编辑器",
        "Name[zh_TW]": "平鋪方塊編輯器"
    },
    "X-KDE-ConfigModule": "kwin_tileseditor_config"
}
