{
    "KPackageStructure": "KWin/Effect",
    "KPlugin": {
        "Authors": [
            {
                "Email": "lmurray@undefinedfire.com, mgraesslin@kde.org",
                "Name": "Lucas Murray, Martin Gräßlin",
                "Name[ar]": "لوكاس موراي، مارتن جراجلين",
                "Name[gl]": "Lucas Murray e Martin Gräßlin.",
                "Name[he]": "ולקאס מוראי, מרטין גרייסלין",
                "Name[ta]": "லூக்கஸ் முரே, மார்ட்டின் கிராஸ்லின்",
                "Name[x-test]": "xxLucas Murray, Martin Gräßlinxx"
            }
        ],
        "Category": "Virtual Desktop Switching Animation",
        "Description": "Fade between virtual desktops when switching between them",
        "Description[ar]": "يجعل أسطح المكتب تتلاشى عند التبيديل بينها",
        "Description[be]": "Пераход паміж віртуальнымі працоўнымі сталамі пры пераключэнні паміж імі",
        "Description[bg]": "Избледняване при превключване между работните плотове",
        "Description[ca@valencia]": "Esvaïx entre els escriptoris virtuals quan es canvia entre ells",
        "Description[ca]": "Esvaeix entre els escriptoris virtuals quan es commuta entre ells",
        "Description[cs]": "Plochy při přepínání mění intenzitu",
        "Description[da]": "Fade mellem virtuelle skrivebord, når der skiftes mellem dem",
        "Description[de]": "Wechseln der virtuellen Arbeitsfläche durch Aus- und Einblenden der Arbeitsfläche",
        "Description[eo]": "Fade inter virtualaj labortabloj kiam ŝanĝas inter ili",
        "Description[es]": "Desvanecer entre escritorios virtuales al cambiar entre ellos",
        "Description[et]": "Hääbumisefekt ühelt virtuaalselt töölaualt teisele lülitudes",
        "Description[eu]": "Koloregabetu alegiazko mahaigainen artean haien artean trukatzean",
        "Description[fi]": "Häivyttää virtuaalityöpöydän niiden välillä vaihdettaessa",
        "Description[fr]": "Effectuer un fondu entre les bureaux virtuels lors d'un basculement entre eux",
        "Description[gl]": "Usa un efecto de esvaemento ao cambiar de escritorio.",
        "Description[he]": "עמעום צולב בין שולחנות עבודה וירטואליים בעת המעבר ביניהם",
        "Description[hu]": "Áttűnés virtuális asztalok közötti váltáskor",
        "Description[ia]": "Pallidi inter scriptorio virtuales quando il commuta inter los",
        "Description[is]": "Sýndarskjáborð hverfa og birtast mjúklega þegar skipt er á milli þeirra",
        "Description[it]": "Passa da desktop virtuale all'altro con una dissolvenza",
        "Description[ja]": "仮想デスクトップが切り替え時にフェードします",
        "Description[ka]": "მინავლება ვირტუალურ სამუშაო მაგიდებს შორის გადართვისას",
        "Description[ko]": "가상 바탕 화면 사이를 전환할 때 페이드 효과를 사용합니다",
        "Description[lt]": "Laipsniškai pereiti tarp virtualių darbalaukių, kai jie perjungiami",
        "Description[lv]": "Pārslēdzot virtuālās darbvirsmas, vecā izgaist",
        "Description[nl]": "Laat virtuele bureaubladen vervagen en opkomen bij het wisselen",
        "Description[nn]": "Ton inn og ut ved veksling mellom virtuelle skrivebord",
        "Description[pl]": "Przenika pulpity wirtualne przy ich przełączaniu",
        "Description[pt]": "Desvanecer os ecrãs virtuais ao mudar entre eles",
        "Description[ro]": "Estompare între birourile virtuale la schimbarea între ele",
        "Description[ru]": "Постепенная смена изображения при переключении на другой рабочий стол",
        "Description[sk]": "Prelínanie medzi virtuálnymi pracovnými plochami pri prepínaní medzi nimi",
        "Description[sl]": "Prelijte med navideznimi namizji, ko preklopite med njimi",
        "Description[sv]": "Tona mellan virtuella skrivbord vid byte mellan dem",
        "Description[ta]": "பணிமேடைகளுக்கிடைய தாவும்போது அவற்றை மங்கசெய்து மாற்றும்",
        "Description[tr]": "Sanal masaüstleri arasında pürüzsüzce geçiş yap",
        "Description[uk]": "Затемнення перед час перемикання між віртуальними стільницями",
        "Description[vi]": "Làm mờ dần giữa các bàn làm việc ảo khi chuyển đổi giữa chúng",
        "Description[x-test]": "xxFade between virtual desktops when switching between themxx",
        "Description[zh_CN]": "在虚拟桌面间切换时呈现渐入渐出动效",
        "Description[zh_TW]": "切換虛擬桌面時在它們之間進行淡化",
        "EnabledByDefault": false,
        "Icon": "preferences-system-windows-effect-fadedesktop",
        "Id": "fadedesktop",
        "License": "GPL",
        "Name": "Fade Desktop",
        "Name[ar]": "تلاشِ سطح المكتب",
        "Name[be]": "Згасанне працоўнага стала",
        "Name[bg]": "Избледняване на работния плот",
        "Name[ca@valencia]": "Esvaïment de l'escriptori",
        "Name[ca]": "Esvaïment de l'escriptori",
        "Name[cs]": "Zeslabit plochu",
        "Name[da]": "Fade skrivebord",
        "Name[de]": "Arbeitsfläche aus-/einblenden",
        "Name[eo]": "Dissolvi Labortablon",
        "Name[es]": "Desvanecer el escritorio",
        "Name[et]": "Töölaua hääbumine",
        "Name[eu]": "Koloregabetu mahaigaina",
        "Name[fi]": "Työpöydän häivytys",
        "Name[fr]": "Effectuer un fondu du bureau",
        "Name[gl]": "Esvaer o escritorio",
        "Name[he]": "הדעכת שולחן עבודה",
        "Name[hu]": "Asztaláttűnés",
        "Name[ia]": "Pallidi scriptorio",
        "Name[is]": "Deyfa skjáborð",
        "Name[it]": "Dissolvenza dei desktop",
        "Name[ja]": "デスクトップをフェード",
        "Name[ka]": "ვირტუალური სამუშაო მაგიდები",
        "Name[ko]": "바탕 화면 페이드",
        "Name[lt]": "Laipsniškas darbalaukių perjungimo atvaizdavimas",
        "Name[lv]": "Likt darbvirsmai izgaist",
        "Name[nl]": "Bureaublad op laten komen",
        "Name[nn]": "Ton inn/ut skrivebord",
        "Name[pl]": "Przenikanie pulpitów",
        "Name[pt]": "Desvanecer o Ecrã",
        "Name[pt_BR]": "Desaparecimento da área de trabalho",
        "Name[ro]": "Estompare birou",
        "Name[ru]": "Плавная смена рабочих столов",
        "Name[sk]": "Zoslabiť plochu",
        "Name[sl]": "Prelij v namizje",
        "Name[sv]": "Borttonande skrivbord",
        "Name[ta]": "பணிமேடையை மங்க செய்",
        "Name[tr]": "Masaüstünü Soldur",
        "Name[uk]": "Затемнення стільниці",
        "Name[vi]": "Làm mờ dần bàn làm việc",
        "Name[x-test]": "xxFade Desktopxx",
        "Name[zh_CN]": "淡出桌面",
        "Name[zh_TW]": "淡出淡入桌面"
    },
    "X-KDE-Ordering": 50,
    "X-KWin-Exclusive-Category": "desktop-animations",
    "X-KWin-Video-Url": "https://files.kde.org/plasma/kwin/effect-videos/fade_desktop.ogv",
    "X-Plasma-API": "javascript"
}
