{
    "KPackageStructure": "KWin/Decoration",
    "KPlugin": {
        "Authors": [
            {
                "Email": "mgraesslin@kde.org",
                "Name": "Martin Gräßlin",
                "Name[ar]": "مارتن جراجلين",
                "Name[gl]": "Martin Gräßlin.",
                "Name[he]": "מרטין גרייסלין",
                "Name[ka]": "მარტინ გრესსლინი",
                "Name[ta]": "மார்ட்டின் கிராஸ்லின்",
                "Name[x-test]": "xxMartin Gräßlinxx"
            }
        ],
        "Description": "The classic theme known from KDE 3",
        "Description[ar]": "السّمة الكلاسيكيّة المعروفة من كِيدِي 3",
        "Description[be]": "Класічная тэма, вядомая з KDE 3",
        "Description[bg]": "Класическата тема, позната от KDE 3",
        "Description[ca@valencia]": "El tema clàssic conegut des de KDE 3",
        "Description[ca]": "El tema clàssic conegut des del KDE 3",
        "Description[cs]": "Klasický motiv známý z KDE 3",
        "Description[da]": "Det klassiske tema kendt fra KDE 3",
        "Description[de]": "Das klassische Design aus KDE 3",
        "Description[eo]": "La klasika etoso konata de KDE 3",
        "Description[es]": "El clásico tema conocido desde KDE 3",
        "Description[et]": "Klassikaline KDE 3 ajast tuntud teema",
        "Description[eu]": "KDE 3tik ezaguna den gai klasikoa",
        "Description[fi]": "KDE 3:sta tuttu perinteinen teema",
        "Description[fr]": "Le thème classique, connu depuis KDE3",
        "Description[gl]": "O tema clásico de KDE 3.",
        "Description[he]": "ערכת העיצוב המוכרת מ־KDE 3",
        "Description[hu]": "A KDE 3-ból ismert klasszikus téma",
        "Description[ia]": "Le thema classic cognoscite ex KDE 3",
        "Description[is]": "Klassíska þemað úr KDE 3",
        "Description[it]": "Il noto tema classico di KDE 3",
        "Description[ja]": "KDE 3 からのクラシックテーマ",
        "Description[ka]": "კლასიკური თემა KDE 3 -დან",
        "Description[ko]": "KDE 3의 고전 테마",
        "Description[lt]": "Klasikinis apipavidalinimas, žinomas iš KDE 3",
        "Description[lv]": "Pazīstamais motīvs no KDE 3",
        "Description[nl]": "Het klassieke thema bekend van KDE 3",
        "Description[nn]": "Klassisk KDE 3-tema",
        "Description[pl]": "Klasyczny wystój znany z KDE 3",
        "Description[pt]": "O tema clássico e conhecido do KDE 3",
        "Description[ro]": "Tematica clasică cunoscută din KDE 3",
        "Description[ru]": "Классическая тема, известная со времён KDE 3.",
        "Description[sk]": "Klasická téma známa z KDE 3",
        "Description[sl]": "Klasična tema znana iz KDE 3",
        "Description[sv]": "Det klassiska temat känt från KDE 3",
        "Description[ta]": "கே.டீ.யீ. 3-இலிருந்தான காலங்கடந்த தோற்றத்திட்டம்",
        "Description[tr]": "KDE 3 zamanından klasik tema",
        "Description[uk]": "Класична тема, відома з часів KDE 3",
        "Description[vi]": "Chủ đề cổ điển được biết đến từ KDE 3",
        "Description[x-test]": "xxThe classic theme known from KDE 3xx",
        "Description[zh_CN]": "KDE 3 时代的经典主题",
        "Description[zh_TW]": "從 KDE3 來的傳統主題",
        "Id": "kwin4_decoration_qml_plastik",
        "License": "GPL",
        "Name": "Plastik",
        "Name[ar]": "بلاستك",
        "Name[he]": "פלסטיק",
        "Name[ru]": "Пластик",
        "Name[uk]": "Пластик",
        "Name[x-test]": "xxPlastikxx",
        "Name[zh_CN]": "Plastik 百相"
    },
    "X-KWin-Config-TranslationDomain": "kwin"
}
